…
``` r
hemisphere_info = tribble( ~continent, ~hemisphere, 
                           "Asia", "North",
                           "Europe", "North",
                           "Africa", "South",
                           "Americas", "North",
                           "Oceania", "South" )
(gapminder_with_hemisphere = right_join(hemisphere_info, gapminder, by="continent"))
```

    ## Warning: Column `continent` joining character vector and factor, coercing
    ## into character vector

    ## # A tibble: 1,704 x 7
    ##    continent hemisphere country      year lifeExp      pop gdpPercap
    ##    <chr>     <chr>      <fct>       <int>   <dbl>    <int>     <dbl>
    ##  1 Asia      North      Afghanistan  1952    28.8  8425333      779.
    ##  2 Asia      North      Afghanistan  1957    30.3  9240934      821.
    ##  3 Asia      North      Afghanistan  1962    32.0 10267083      853.
    ##  4 Asia      North      Afghanistan  1967    34.0 11537966      836.
    ##  5 Asia      North      Afghanistan  1972    36.1 13079460      740.
    ##  6 Asia      North      Afghanistan  1977    38.4 14880372      786.
    ##  7 Asia      North      Afghanistan  1982    39.9 12881816      978.
    ##  8 Asia      North      Afghanistan  1987    40.8 13867957      852.
    ##  9 Asia      North      Afghanistan  1992    41.7 16317921      649.
    ## 10 Asia      North      Afghanistan  1997    41.8 22227415      635.
    ## # ... with 1,694 more rows
…
